/MDA0;MDA1^
/MDA0;MDF0^
/MDF0;MDE5^
/MDA1;MDC0^
/MDA1;MDB9^
/MDA1;MDC6^
/MDA1;MDC1^
/MDA1;MDB8^
/MDA1;MDA2^
/MDA2;MDC0^
/MDA2;MDB9^
/MDA2;MDC6^
/MDA2;MDC1^
/MDA2;MDB8^
/MDG4;MDD7^
/MDA9;MDD7^
/MDC1;MDC3^
/MDC1;MDC2^
/MDB9;MDA4^
/MDB9;MDA7^
/MDB9;MDC4^
/MDC0;MDA4^
/MDC0;MDA7^
/MDC0;MDC4^
/MDA4;MDA8^
/MDA7;MDA8^
/MDC4;MDB2^
/MDC4;MDA5^
/MDA4;MDB0^
/MDA4;MSB7^
/UFA6;MSB7^
/MDD6;UFA6^
/MDA4;MSA5^
/MDA4;MDB6^
/UEB0;MSA0^
/MDA4;MDA5^
/MDC1;MDG5^
/MDB9;MDB1^
/MDC0;MDB1^
/MDA1;MDG6^
/MDG6;MCA0^
/MDG6;MCB7^
/MDG6;MCB1^
